{
    "data": [
        {
            "id": "28ved6",
            "url": "https:\/\/wallhaven.cc\/w\/28ved6",
            "short_url": "https:\/\/whvn.cc\/28ved6",
            "views": 5,
            "favorites": 1,
            "source": "",
            "purity": "sfw",
            "category": "anime",
            "dimension_x": 1032,
            "dimension_y": 1457,
            "resolution": "1032x1457",
            "ratio": "0.71",
            "file_size": 719416,
            "file_type": "image\/jpeg",
            "created_at": "2022-05-13 07:57:08",
            "colors": [
                "#424153",
                "#66cccc",
                "#ffffff",
                "#999999",
                "#333399"
            ],
            "path": "https:\/\/w.wallhaven.cc\/full\/28\/wallhaven-28ved6.jpg",
            "thumbs": {
                "large": "https:\/\/th.wallhaven.cc\/lg\/28\/28ved6.jpg",
                "original": "https:\/\/th.wallhaven.cc\/orig\/28\/28ved6.jpg",
                "small": "https:\/\/th.wallhaven.cc\/small\/28\/28ved6.jpg"
            }
        }        
    ],
    "meta": {
        "current_page": 1,
        "last_page": 16286,
        "per_page": 24,
        "total": 390861,
        "query": null,
        "seed": null
    }
}